%YAML 1.1
%TAG !u! tag:unity3d.com,2011:
--- !u!114 &11400000
MonoBehaviour:
  m_ObjectHideFlags: 0
  m_CorrespondingSourceObject: {fileID: 0}
  m_PrefabInstance: {fileID: 0}
  m_PrefabAsset: {fileID: 0}
  m_GameObject: {fileID: 0}
  m_Enabled: 1
  m_EditorHideFlags: 0
  m_Script: {fileID: 11500000, guid: 31b99c9d4e8cb4cbfb40bb92ab30d1c4, type: 3}
  m_Name: Keksfabrik
  m_EditorClassIdentifier: 
  Owned: 0
  BaseCost: 500000
  BaseRevenue: 1000
  BaseProductionTimeInSeconds: 10
  CostFactor: 1.9
  Multipliers:
  - Level: 1
    Value: 1
  - Level: 10
    Value: 1000
  - Level: 100
    Value: 10000
  ProductionCycleInSeconds: 0
